{
    "1234567890" : {
        "type" : "video",
        "urls" : ["/static/videos/video_1.mp4"],
        "screen_id": "123456789"
    },

    "abcdefg" : {
        "type" : "video",
        "urls" : ["/static/videos/video_2.mp4", "/static/videos/video_1.mp4"],
        "screen_id": "123456789"
    }
}