{
  "data": [
    {
      "tag_id": "dcc76ee6-c772-409d-8caa-6c572702ff54",
      "tag_name": "Tag the first",
      "tag_videos": [
        "vid1",
        "vid2",
        "vid3"
      ]
    },
    {
      "tag_id": "d00855f4-3a08-4147-8211-b157df1fe68f",
      "tag_name": "second Tag",
      "tag_videos": ""
    }
  ],
  "id_attr": "tag_id"
}